<?xml version="1.0" encoding="UTF-8" standalone="no"?>
<!-- Created with Inkscape (http://www.inkscape.org/) -->

<svg
   xmlns:dc="http://purl.org/dc/elements/1.1/"
   xmlns:cc="http://creativecommons.org/ns#"
   xmlns:rdf="http://www.w3.org/1999/02/22-rdf-syntax-ns#"
   xmlns:svg="http://www.w3.org/2000/svg"
   xmlns="http://www.w3.org/2000/svg"
   xmlns:xlink="http://www.w3.org/1999/xlink"
   xmlns:sodipodi="http://sodipodi.sourceforge.net/DTD/sodipodi-0.dtd"
   xmlns:inkscape="http://www.inkscape.org/namespaces/inkscape"
   width="1488.189"
   height="1052.3622"
   id="svg2"
   version="1.1"
   inkscape:version="0.48.0 r9654"
   sodipodi:docname="graphic.svg">
  <defs
     id="defs4" />
  <sodipodi:namedview
     id="base"
     pagecolor="#ffffff"
     bordercolor="#666666"
     borderopacity="1.0"
     inkscape:pageopacity="0.0"
     inkscape:pageshadow="2"
     inkscape:zoom="0.98994949"
     inkscape:cx="744.39787"
     inkscape:cy="537.53123"
     inkscape:document-units="px"
     inkscape:current-layer="layer1"
     showgrid="false"
     inkscape:window-width="1920"
     inkscape:window-height="1138"
     inkscape:window-x="-8"
     inkscape:window-y="-8"
     inkscape:window-maximized="1" />
  <metadata
     id="metadata7">
    <rdf:RDF>
      <cc:Work
         rdf:about="">
        <dc:format>image/svg+xml</dc:format>
        <dc:type
           rdf:resource="http://purl.org/dc/dcmitype/StillImage" />
        <dc:title></dc:title>
      </cc:Work>
    </rdf:RDF>
  </metadata>
  <g
     inkscape:label="Layer 1"
     inkscape:groupmode="layer"
     id="layer1"
     transform="translate(0,2.472441e-5)">
    <image
       sodipodi:absref="Z:\Temp1\patterns\images\coord_fcc.png"
       xlink:href="coord_fcc.png"
       width="120.75232"
       height="122.44511"
       id="image2993"
       x="773.58228"
       y="744.24109" />
    <image
       y="738.42651"
       x="530.35712"
       id="image3004"
       xlink:href="file:///Z:/Temp1/patterns/images/coord_hcp.png"
       height="126.11282"
       width="135.70529" />
    <image
       y="768.1842"
       x="1010.2059"
       id="image3026"
       xlink:href="file:///Z:/Temp1/patterns/images/coord_fcc_111_surface.png"
       height="91.12851"
       width="124.1379" />
    <text
       xml:space="preserve"
       style="font-size:40px;font-style:normal;font-weight:normal;line-height:125%;letter-spacing:0px;word-spacing:0px;fill:#000000;fill-opacity:1;stroke:none;font-family:Sans"
       x="283.2338"
       y="808.07648"
       id="text3029"
       sodipodi:linespacing="125%"><tspan
         sodipodi:role="line"
         id="tspan3031"
         x="286.83926"
         y="808.07648"
         style="font-size:26px;font-weight:bold;text-align:center;text-anchor:middle;-inkscape-font-specification:Sans Bold">Coordination </tspan><tspan
         sodipodi:role="line"
         x="283.2338"
         y="840.57648"
         id="tspan3033"
         style="font-size:26px;font-weight:bold;text-align:center;text-anchor:middle;-inkscape-font-specification:Sans Bold">patterns</tspan></text>
    <text
       xml:space="preserve"
       style="font-size:40px;font-style:normal;font-weight:normal;line-height:125%;letter-spacing:0px;word-spacing:0px;fill:#000000;fill-opacity:1;stroke:none;font-family:Sans"
       x="828.64484"
       y="913.7265"
       id="text3029-7"
       sodipodi:linespacing="125%"><tspan
         sodipodi:role="line"
         x="828.64484"
         y="913.7265"
         id="tspan3033-4"
         style="font-size:26px;text-align:center;text-anchor:middle">fcc</tspan></text>
    <text
       sodipodi:linespacing="125%"
       id="text3074"
       y="913.7265"
       x="596.78766"
       style="font-size:40px;font-style:normal;font-weight:normal;line-height:125%;letter-spacing:0px;word-spacing:0px;fill:#000000;fill-opacity:1;stroke:none;font-family:Sans"
       xml:space="preserve"><tspan
         style="font-size:26px;text-align:center;text-anchor:middle"
         id="tspan3076"
         y="913.7265"
         x="596.78766"
         sodipodi:role="line">hcp</tspan></text>
    <text
       sodipodi:linespacing="125%"
       id="text3078"
       y="913.7265"
       x="1086.3591"
       style="font-size:40px;font-style:normal;font-weight:normal;line-height:125%;letter-spacing:0px;word-spacing:0px;fill:#000000;fill-opacity:1;stroke:none;font-family:Sans"
       xml:space="preserve"><tspan
         style="font-size:26px;text-align:center;text-anchor:middle"
         y="913.7265"
         x="1086.3591"
         sodipodi:role="line"
         id="tspan3082">fcc {111} surface</tspan></text>
    <image
       y="165.18082"
       x="600.43884"
       id="image3103"
       xlink:href="file:///Z:/Temp1/patterns/images/superpattern_9R.png"
       height="386.81342"
       width="515.75128" />
    <image
       y="314.936"
       x="594.37793"
       id="image3114"
       xlink:href="file:///Z:/Temp1/patterns/images/superpattern_fcc.png"
       height="102.70802"
       width="136.94403" />
    <image
       y="155.09421"
       x="588.4903"
       id="image3125"
       xlink:href="file:///Z:/Temp1/patterns/images/superpattern_hcp.png"
       height="130.73976"
       width="174.31967" />
    <image
       y="449.53879"
       x="577.20532"
       id="image3136"
       xlink:href="file:///Z:/Temp1/patterns/images/superpattern_L12.png"
       height="126.95168"
       width="169.26891" />
    <image
       y="167.70435"
       x="945.1123"
       id="image3015"
       xlink:href="file:///Z:/Temp1/patterns/images/superpattern_fcc_111_surface.png"
       height="121.53754"
       width="162.05005" />
    <image
       y="361.90805"
       x="888.89429"
       id="image3092"
       xlink:href="file:///Z:/Temp1/patterns/images/superpattern_coherent_twin.png"
       height="213.31973"
       width="284.4263" />
    <text
       xml:space="preserve"
       style="font-size:40px;font-style:normal;font-weight:normal;line-height:125%;letter-spacing:0px;word-spacing:0px;fill:#000000;fill-opacity:1;stroke:none;font-family:Sans"
       x="567.07703"
       y="230.13593"
       id="text3029-2"
       sodipodi:linespacing="125%"><tspan
         sodipodi:role="line"
         x="567.07703"
         y="230.13593"
         id="tspan3033-9"
         style="font-size:26px;text-align:end;text-anchor:end">hcp lattice</tspan></text>
    <text
       sodipodi:linespacing="125%"
       id="text3165"
       y="378.70737"
       x="559.81531"
       style="font-size:40px;font-style:normal;font-weight:normal;line-height:125%;letter-spacing:0px;word-spacing:0px;fill:#000000;fill-opacity:1;stroke:none;font-family:Sans"
       xml:space="preserve"><tspan
         style="font-size:26px;text-align:end;text-anchor:end"
         id="tspan3167"
         y="378.70737"
         x="559.81531"
         sodipodi:role="line">fcc lattice</tspan></text>
    <text
       xml:space="preserve"
       style="font-size:40px;font-style:normal;font-weight:normal;line-height:125%;letter-spacing:0px;word-spacing:0px;fill:#000000;fill-opacity:1;stroke:none;font-family:Sans"
       x="563.29395"
       y="522.99304"
       id="text3169"
       sodipodi:linespacing="125%"><tspan
         sodipodi:role="line"
         x="563.29395"
         y="522.99304"
         id="tspan3171"
         style="font-size:26px;text-align:end;text-anchor:end">L1<tspan
   style="font-size:65.00091553%;text-align:end;text-anchor:end;baseline-shift:sub"
   id="tspan3173">2</tspan> lattice</tspan></text>
    <text
       sodipodi:linespacing="125%"
       id="text3175"
       y="230.13593"
       x="1103.6383"
       style="font-size:40px;font-style:normal;font-weight:normal;line-height:125%;letter-spacing:0px;word-spacing:0px;fill:#000000;fill-opacity:1;stroke:none;font-family:Sans"
       xml:space="preserve"><tspan
         style="font-size:26px;text-align:start;text-anchor:start"
         y="230.13593"
         x="1103.6383"
         sodipodi:role="line"
         id="tspan3212">fcc {111} surface</tspan></text>
    <text
       xml:space="preserve"
       style="font-size:40px;font-style:normal;font-weight:normal;line-height:125%;letter-spacing:0px;word-spacing:0px;fill:#000000;fill-opacity:1;stroke:none;font-family:Sans"
       x="1103.6383"
       y="462.99307"
       id="text3179"
       sodipodi:linespacing="125%"><tspan
         sodipodi:role="line"
         x="1103.6383"
         y="462.99307"
         style="font-size:26px;text-align:start;text-anchor:start"
         id="tspan3189">coherent twin </tspan><tspan
         sodipodi:role="line"
         x="1103.6383"
         y="495.49307"
         style="font-size:26px;text-align:start;text-anchor:start"
         id="tspan3218">boundary (in fcc)</tspan></text>
    <text
       sodipodi:linespacing="125%"
       id="text3175-4"
       y="567.0907"
       x="802.13147"
       style="font-size:40px;font-style:normal;font-weight:normal;line-height:125%;letter-spacing:0px;word-spacing:0px;fill:#000000;fill-opacity:1;stroke:none;font-family:Sans"
       xml:space="preserve"><tspan
         style="font-size:26px;text-align:start;text-anchor:start"
         id="tspan3177-8"
         y="567.0907"
         x="802.13147"
         sodipodi:role="line">9R lattice</tspan></text>
    <text
       sodipodi:linespacing="125%"
       id="text3226"
       y="349.21933"
       x="283.2338"
       style="font-size:40px;font-style:normal;font-weight:normal;line-height:125%;letter-spacing:0px;word-spacing:0px;fill:#000000;fill-opacity:1;stroke:none;font-family:Sans"
       xml:space="preserve"><tspan
         style="font-size:26px;font-weight:bold;text-align:center;text-anchor:middle;-inkscape-font-specification:Sans Bold"
         y="349.21933"
         x="283.2338"
         id="tspan3228"
         sodipodi:role="line">Multi-atom</tspan><tspan
         style="font-size:26px;font-weight:bold;text-align:center;text-anchor:middle;-inkscape-font-specification:Sans Bold"
         id="tspan3230"
         y="381.71933"
         x="286.83926"
         sodipodi:role="line">pattern </tspan><tspan
         style="font-size:26px;font-weight:bold;text-align:center;text-anchor:middle;-inkscape-font-specification:Sans Bold"
         y="414.21933"
         x="283.2338"
         sodipodi:role="line"
         id="tspan4004">templates</tspan></text>
    <rect
       style="fill:none;stroke:#000000;stroke-opacity:1"
       id="rect3232"
       width="225.71428"
       height="115.71429"
       x="167.14285"
       y="315.2193" />
    <rect
       y="756.64789"
       x="167.14285"
       height="115.71429"
       width="225.71428"
       id="rect4002"
       style="fill:none;stroke:#000000;stroke-opacity:1" />
    <text
       xml:space="preserve"
       style="font-size:40px;font-style:normal;font-weight:normal;line-height:125%;letter-spacing:0px;word-spacing:0px;fill:#000000;fill-opacity:1;stroke:none;font-family:Sans"
       x="612.15247"
       y="582.64124"
       id="text4006"
       sodipodi:linespacing="125%"><tspan
         sodipodi:role="line"
         id="tspan4008"
         x="612.15247"
         y="582.64124"
         style="font-size:18px">A</tspan></text>
    <text
       sodipodi:linespacing="125%"
       id="text4010"
       y="576.58032"
       x="657.10425"
       style="font-size:40px;font-style:normal;font-weight:normal;line-height:125%;letter-spacing:0px;word-spacing:0px;fill:#000000;fill-opacity:1;stroke:none;font-family:Sans"
       xml:space="preserve"><tspan
         style="font-size:18px"
         y="576.58032"
         x="657.10425"
         id="tspan4012"
         sodipodi:role="line">B</tspan></text>
  </g>
</svg>
